{
  "version": 8,
  "name": "Vector Tiles",
  "sources": {
    "vector-tiles": {
      "type": "vector",
      "tiles": [
        "https://jwestman.pages.gitlab.gnome.org/vector-tile-test-data/world_overview/{z}/{x}/{y}.pbf"
      ],
      "minzoom": 0,
      "maxzoom": 5
    }
  },
  "layers": [
    {
      "id": "background",
      "type": "background",
      "paint": {
        "background-color": "#f6f5f4"
      }
    },
    {
      "id": "water",
      "type": "fill",
      "source-layer": "water",
      "paint": {
        "fill-color": {
          "stops": [
            [0, "#3584e4"],
            [5, "#1a5fb4"]
          ]
        }
      }
    },
    {
      "id": "water-pattern",
      "type": "fill",
      "source-layer": "water",
      "paint": {
        "fill-pattern": "ocean",
        "fill-opacity": 0.1
      }
    },
    {
      "id": "country_boundary",
      "type": "line",
      "source-layer": "admin_boundary",
      "filter": ["==", "admin_level", 2],
      "paint": {
        "line-color": "#9a9996",
        "line-opacity": 0.7,
        "line-width": 1.2
      }
    },
    {
      "id": "state_boundary",
      "type": "line",
      "source-layer": "admin_boundary",
      "filter": ["==", "admin_level", 4],
      "paint": {
        "line-color": "#9a9996",
        "line-opacity": 0.5,
        "line-width": 0.9
      }
    },
    {
      "id": "cities",
      "type": "symbol",
      "source-layer": "city",
      "layout": {
        "text-field": "{name}"
      },
      "paint": {
        "text-color": "#000000"
      }
    },
    {
      "id": "waterway",
      "type": "line",
      "source-layer": "waterway",
      "paint": {
        "line-width": 0.5,
        "line-color": {
          "stops": [
            [0, "#3584e4"],
            [5, "#1a5fb4"]
          ]
        }
      }
    },
    {
      "id": "waterway_label",
      "type": "symbol",
      "source-layer": "waterway",
      "layout": {
        "text-field": "{name}",
        "symbol-placement": "line",
        "font-family": "Cantarell 16"
      },
      "paint": {
        "text-color": "#000000"
      }
    }
  ]
}

