<?xml version="1.0" encoding="UTF-8" standalone="no"?>
<!-- Created with Inkscape (http://www.inkscape.org/) -->

<svg
   width="16"
   height="8"
   viewBox="0 0 16 8"
   version="1.1"
   id="svg5"
   inkscape:version="1.2 (dc2aedaf03, 2022-05-15)"
   sodipodi:docname="sprites.svg"
   inkscape:export-filename="sprites.png"
   inkscape:export-xdpi="96"
   inkscape:export-ydpi="96"
   xmlns:inkscape="http://www.inkscape.org/namespaces/inkscape"
   xmlns:sodipodi="http://sodipodi.sourceforge.net/DTD/sodipodi-0.dtd"
   xmlns="http://www.w3.org/2000/svg"
   xmlns:svg="http://www.w3.org/2000/svg">
  <sodipodi:namedview
     id="namedview7"
     pagecolor="#505050"
     bordercolor="#eeeeee"
     borderopacity="1"
     inkscape:showpageshadow="0"
     inkscape:pageopacity="0"
     inkscape:pagecheckerboard="0"
     inkscape:deskcolor="#505050"
     inkscape:document-units="px"
     showgrid="true"
     inkscape:zoom="24.4375"
     inkscape:cx="9.8005115"
     inkscape:cy="5.2378517"
     inkscape:window-width="1920"
     inkscape:window-height="1011"
     inkscape:window-x="0"
     inkscape:window-y="0"
     inkscape:window-maximized="1"
     inkscape:current-layer="layer1">
    <inkscape:grid
       type="xygrid"
       id="grid1050"
       empspacing="4"
       originx="0"
       originy="0" />
  </sodipodi:namedview>
  <defs
     id="defs2" />
  <g
     inkscape:label="Layer 1"
     inkscape:groupmode="layer"
     id="layer1">
    <path
       id="path1104"
       style="color:#000000;fill:#fefefe;stroke-linecap:square;-inkscape-stroke:none"
       d="M 7.5,1 C 7.5,1.8343462 6.790313,2.7024995 5.4335938,3.3808594 4.0768734,4.0592192 2.1415758,4.5 0,4.5 v 1 C 2.2766854,5.5 4.3421614,5.0447404 5.8808594,4.2753906 6.7921632,3.8197391 7.5394361,3.2357286 8,2.5507812 8.460564,3.2357286 9.2078367,3.8197391 10.119141,4.2753906 11.657839,5.0447404 13.723315,5.5 16,5.5 v -1 C 13.858424,4.5 11.923127,4.0592192 10.566406,3.3808594 9.2096868,2.7024995 8.5,1.8343462 8.5,1 Z" />
  </g>
</svg>
